Forecasting Monthly Marriages
…
data_train <- data_ts%>%
  filter(year(Date) <= 2020)
data_train

## # A tsibble: 132 x 2 [1M]
##        Date Marriages
##       <mth>     <dbl>
##  1 2010 jan      1389
##  2 2010 fev      1426
##  3 2010 mar      2313
##  4 2010 abr      2378
##  5 2010 mai      2449
##  6 2010 jun      1625
##  7 2010 jul      1671
##  8 2010 ago      2102
##  9 2010 set      3313
## 10 2010 out      4345
## # ℹ 122 more rows
…
